…
#-----Joining---

# first view what is missing between the datasets 
missing <- anti_join(gne_clean_tidy,unemplyed_clean_tidy, by = "country")
missing

## # A tibble: 181 × 4
##    country             country_code  year   gne
##    <chr>               <chr>        <dbl> <dbl>
##  1 Antigua and Barbuda ATG           2001  105.
##  2 Antigua and Barbuda ATG           2002  106.
##  3 Antigua and Barbuda ATG           2003  108.
##  4 Antigua and Barbuda ATG           2004  106.
##  5 Antigua and Barbuda ATG           2005  113.
##  6 Antigua and Barbuda ATG           2006  123.
##  7 Antigua and Barbuda ATG           2007  127.
##  8 Antigua and Barbuda ATG           2008  124.
##  9 Antigua and Barbuda ATG           2009  111.
## 10 Antigua and Barbuda ATG           2010  114.
## # … with 171 more rows
…
  #arrange it in desc. order
  arrange(desc(gne)) %>%
  
  #group by country
  group_by(country) %>%
  
  #compute the five num. summary for this column: 
  # format: first to last -> (minimum, 1st. quartile, median, 3rd. quartile, maximum)
  summarize(fivenum(gne))

## `summarise()` has grouped output by 'country'. You can override using the
## `.groups` argument.

## # A tibble: 740 × 2
## # Groups:   country [148]
##    country `fivenum(gne)`
##    <chr>            <dbl>
##  1 Albania          114. 
##  2 Albania          118. 
##  3 Albania          121. 
##  4 Albania          125. 
##  5 Albania          129. 
##  6 Algeria           73.1
##  7 Algeria           85.5
##  8 Algeria           91.6
##  9 Algeria          104. 
## 10 Algeria          114. 
## # … with 730 more rows
…
  # group by country
  group_by(country) %>%
  
  #arrange the column in descending order
  arrange(desc(unemploy_rate)) %>%
  
  # coumpute the fivenum summary by country 
  summarize(fivenum(unemploy_rate))

## `summarise()` has grouped output by 'country'. You can override using the
## `.groups` argument.

## # A tibble: 740 × 2
## # Groups:   country [148]
##    country `fivenum(unemploy_rate)`
##    <chr>                      <dbl>
##  1 Albania                    11.5 
##  2 Albania                    13.5 
##  3 Albania                    15.6 
##  4 Albania                    16.6 
##  5 Albania                    18.6 
##  6 Algeria                     9.82
##  7 Algeria                    10.2 
##  8 Algeria                    11.0 
##  9 Algeria                    14.5 
## 10 Algeria                    27.3 
## # … with 730 more rows
…
  # group by country
  group_by(country) %>%
  
  # arrange life expectancy column in descending order
  arrange(desc(life_expectancy)) %>%
  
  # compute the fivenum summary for life expectancy by country
  summarize(fivenum(life_expectancy))

## `summarise()` has grouped output by 'country'. You can override using the
## `.groups` argument.

## # A tibble: 740 × 2
## # Groups:   country [148]
##    country `fivenum(life_expectancy)`
##    <chr>                        <dbl>
##  1 Albania                       74.3
##  2 Albania                       75.3
##  3 Albania                       76.6
##  4 Albania                       77.9
##  5 Albania                       78.6
##  6 Algeria                       71.1
##  7 Algeria                       73.3
##  8 Algeria                       74.9
##  9 Algeria                       76.0
## 10 Algeria                       76.9
## # … with 730 more rows
…
final_dataset %>%
  
  # group by country
  group_by(country) %>%
  
  #compute the average malnourishment percentage per country 
  summarize(avg_malnourish_perc = mean(malnourish_perc)) %>%
  
  # add that average to the final dataset
  mutate(avg_malnourish_perc)

## # A tibble: 148 × 2
##    country    avg_malnourish_perc
##    <chr>                    <dbl>
##  1 Albania                   6.12
##  2 Algeria                   4.71
##  3 Angola                   33.2 
##  4 Argentina                 3.22
##  5 Armenia                   8.25
##  6 Australia                 2.5 
##  7 Austria                   2.5 
##  8 Azerbaijan                4.65
##  9 Bangladesh               14.1 
## 10 Barbados                  4.95
## # … with 138 more rows
…
# get row counts of each country in the final dataset
final_dataset%>%
  group_by(country) %>%
  count(length(country))

## # A tibble: 148 × 3
## # Groups:   country [148]
##    country    `length(country)`     n
##    <chr>                  <int> <int>
##  1 Albania                 2692    19
##  2 Algeria                 2692    19
##  3 Angola                  2692    19
##  4 Argentina               2692    19
##  5 Armenia                 2692    19
##  6 Australia               2692    19
##  7 Austria                 2692    19
##  8 Azerbaijan              2692    19
##  9 Bangladesh              2692    19
## 10 Barbados                2692    19
## # … with 138 more rows
…
